3 Visualización de datos espaciales – Introducción al análisis de datos espaciales
…
Código

base %>% count(categoria_delito,sexo)

# A tibble: 50 × 3
   categoria_delito       sexo                  n
   <chr>                  <chr>             <int>
 1 DELITO DE BAJO IMPACTO Femenino         501803
 2 DELITO DE BAJO IMPACTO Masculino        477220
 3 DELITO DE BAJO IMPACTO No se especifica      2
 4 DELITO DE BAJO IMPACTO <NA>             203751
 5 HECHO NO DELICTIVO     Femenino           6355
 6 HECHO NO DELICTIVO     Masculino         17819
 7 HECHO NO DELICTIVO     <NA>               1872
 8 HOMICIDIO DOLOSO       Femenino           1227
 9 HOMICIDIO DOLOSO       Masculino          6893
10 HOMICIDIO DOLOSO       <NA>                 32
# ℹ 40 more rows
…
Cuando se realiza el conteo con más de una variable, se pueden empezar a empalmar (somehow) las columnas. Esto se puede resolver con position o con facetas. A continuación se muestran dos gráficas de lo mismo: una en la que se empalman los distintos tipos de delito (que es exactamente igual a la anterior…) y otra donde sí se diferencían.

Código

base %>%
    filter(anio_hecho>2018) %>%
    count(anio_hecho,categoria_delito)

# A tibble: 96 × 3
   anio_hecho categoria_delito                                             n
        <dbl> <chr>                                                    <int>
 1       2019 DELITO DE BAJO IMPACTO                                  199500
 2       2019 HECHO NO DELICTIVO                                        3647
 3       2019 HOMICIDIO DOLOSO                                          1899
 4       2019 LESIONES DOLOSAS POR DISPARO DE ARMA DE FUEGO             1781
 5       2019 ROBO A CASA HABITACIÓN CON VIOLENCIA                       775
 6       2019 ROBO A CUENTAHABIENTE SALIENDO DEL CAJERO CON VIOLENCIA    696
 7       2019 ROBO A NEGOCIO CON VIOLENCIA                             12662
 8       2019 ROBO A PASAJERO A BORDO DE MICROBUS CON Y SIN VIOLENCIA   1282
 9       2019 ROBO A PASAJERO A BORDO DE TAXI CON VIOLENCIA              416
10       2019 ROBO A PASAJERO A BORDO DEL METRO CON Y SIN VIOLENCIA     3163
# ℹ 86 more rows
…
En el hexbin no hay una geometría tal cual, por lo que no permite hacer comparaciones. El algoritmo H3 (Uber’s Hexagonal Hierarchical Spatial Index) ofrece un sistema geoespacial completo que permite consideraciones jerárquicas, por lo que cada punto cae en una zona y en esa zona podemos cuantificar. Cuenta con 16 niveles: del 0 al 15; para los cuales va decreciendo el tamaño del hexágono. Una manera de trabajar con esta herramienta es conjuntando las bibliotecas sf y h3jsr.

Para el ejemplo, se utilizan tres columnas y se agrega una (con fines de ejemplo) con el valor de 50.

Código

library(sf)
library(h3jsr)

delito %>%
    select(anio_hecho,longitud,latitud) %>%
    mutate(nueva_columna=50)

# A tibble: 7,845 × 4
   anio_hecho longitud latitud nueva_columna
        <dbl>    <dbl>   <dbl>         <dbl>
 1       2019    -99.1    19.3            50
 2       2019    -99.1    19.5            50
 3       2019    -99.3    19.3            50
 4       2019    -99.1    19.3            50
 5       2019    -99.2    19.3            50
 6       2019    -99.2    19.4            50
 7       2019    -99.3    19.3            50
 8       2019    -99.1    19.3            50
 9       2019    -99.1    19.5            50
10       2019    -99.1    19.5            50
# ℹ 7,835 more rows
…
Código

delito %>%
    select(anio_hecho,longitud,latitud) %>%
    mutate(nueva_columna=50) %>%
    st_as_sf(coords = c("longitud","latitud"),crs=4326) %>%
    mutate(id_h3 =point_to_cell(geometry,res=7))

Simple feature collection with 7845 features and 3 fields
Geometry type: POINT
Dimension:     XY
Bounding box:  xmin: -99.34075 ymin: 19.13327 xmax: -98.95401 ymax: 19.57738
Geodetic CRS:  WGS 84
# A tibble: 7,845 × 4
   anio_hecho nueva_columna             geometry id_h3          
 *      <dbl>         <dbl>          <POINT [°]> <chr>          
 1       2019            50  (-99.14254 19.3092) 874995842ffffff
 2       2019            50  (-99.0709 19.48508) 874995b93ffffff
 3       2019            50 (-99.26158 19.32718) 874995b30ffffff
 4       2019            50 (-99.07577 19.31761) 874995852ffffff
 5       2019            50 (-99.24413 19.31978) 874995b36ffffff
 6       2019            50 (-99.21911 19.38127) 874995b16ffffff
 7       2019            50  (-99.29367 19.3382) 874995b35ffffff
 8       2019            50 (-99.06553 19.31359) 874995852ffffff
 9       2019            50 (-99.13544 19.49277) 874995b9dffffff
10       2019            50  (-99.0764 19.49675) 874995b93ffffff
# ℹ 7,835 more rows

Lo anterior agregó la columna id_h3, la cual permite visualizar el idhex en el que se cae. Con esto se puede realizar el conteo básico para conocer la distribución o dar un seguimiento temporal. También notemos que se usó una transformación a coordenadas a un objeto espacial usando st_as_sf(), lo cual viene del paquete sf. El argumento coords=c("longitud","latitud") indica qué columnas contienen las coordenadas, crs=4326 especifica el sistema de coordenadas WGS84 (el estándar para GPS y mapas web), y con ello asigna cada punto a una celda hexagonal usando point_to_cell() que lo almacena en la columna id_h3. La función as_tibble() hace que se tenga un formato de tabla ya que con el idhex se prescinde de la columna de geometry.

Código

delito %>%
    select(anio_hecho,longitud,latitud) %>%
    mutate(nueva_columna=50) %>%
    st_as_sf(coords = c("longitud","latitud"),crs=4326) %>%
    mutate(id_h3 =point_to_cell(geometry,res=8)) %>%
    as_tibble() %>%
    select(-geometry)

# A tibble: 7,845 × 3
   anio_hecho nueva_columna id_h3          
        <dbl>         <dbl> <chr>          
 1       2019            50 8849958423fffff
 2       2019            50 884995b931fffff
 3       2019            50 884995b30dfffff
 4       2019            50 8849958ec9fffff
 5       2019            50 884995b36dfffff
 6       2019            50 884995b161fffff
 7       2019            50 884995b353fffff
 8       2019            50 8849958e1bfffff
 9       2019            50 884995b837fffff
10       2019            50 88499516d9fffff
# ℹ 7,835 more rows

El conteo por hexágono es el siguiente.

Código

delito %>%
    select(anio_hecho,longitud,latitud) %>%
    mutate(nueva_columna=50) %>%
    st_as_sf(coords = c("longitud","latitud"),crs=4326) %>%
    mutate(id_h3 =point_to_cell(geometry,res=7)) %>%
    as_tibble() %>%
    select(-geometry) %>%
    count(id_h3)

# A tibble: 185 × 2
   id_h3               n
   <chr>           <int>
 1 874986492ffffff     5
 2 87498649affffff    11
 3 87498649bffffff     1
 4 87499516dffffff    10
 5 874995800ffffff    27
 6 874995801ffffff     9
 7 874995802ffffff    12
 8 874995804ffffff     4
 9 874995805ffffff     7
10 874995806ffffff    12
# ℹ 175 more rows
…
